^D:\GOOGLE 雲端硬碟\中興機械所205研究室\機械所課程\碩二上學期\軟性計算與智慧\HW1_GA\HW1_GA\GA_FLOATING.CPP
/c /ZI /nologo /W3 /WX- /sdl /Od /Oy- /D _MBCS /Gm /EHsc /RTC1 /MDd /GS /fp:precise /Zc:wchar_t /Zc:forScope /Fo"DEBUG\\" /Fd"DEBUG\VC110.PDB" /Gd /TP /analyze- D:\GOOGLE 雲端硬碟\中興機械所205研究室\機械所課程\碩二上學期\軟性計算與智慧\HW1_GA\HW1_GA\GA_FLOATING.CPP
^D:\GOOGLE 雲端硬碟\中興機械所205研究室\機械所課程\碩二上學期\軟性計算與智慧\HW1_GA\HW1_GA\STDAFX.CPP
/c /ZI /nologo /W3 /WX- /sdl /Od /Oy- /D _MBCS /Gm /EHsc /RTC1 /MDd /GS /fp:precise /Zc:wchar_t /Zc:forScope /Fo"DEBUG\\" /Fd"DEBUG\VC110.PDB" /Gd /TP /analyze- D:\GOOGLE 雲端硬碟\中興機械所205研究室\機械所課程\碩二上學期\軟性計算與智慧\HW1_GA\HW1_GA\STDAFX.CPP
